<?xml version="1.0" encoding="utf-8"?>
<svg xmlns="http://www.w3.org/2000/svg" xmlns:xlink="http://www.w3.org/1999/xlink" version="1.2" baseProfile="tiny">
  width="250" height="250" viewBox="0 0 250 250" xml:space="preserve"
  <defs>
<radialGradient id="gradient_q_" cx=".5" cy="0.5" r="1" gradientUnits="objectBoundingBox">
      <stop offset="0" style="stop-color:#FFFFFF"/>
      <stop offset="0.4" style="stop-color:#65FF3F"/>
      <stop offset="1" style="stop-color:#33FF00"/>
    </radialGradient>
<radialGradient id="gradient_e_" cx=".5" cy="0.5" r="1" gradientUnits="objectBoundingBox">
      <stop offset="0" style="stop-color:#FFFFFF"/>
      <stop offset="0.5" style="stop-color:#FF3F3F"/>
      <stop offset="1" style="stop-color:#FF0000"/>
    </radialGradient>
<radialGradient id="gradient_p_" cx=".5" cy="0.5" r="1" gradientUnits="objectBoundingBox">
      <stop offset="0" style="stop-color:#FFFFFF"/>
      <stop offset="0.5" style="stop-color:#3FFFFF"/>
      <stop offset="1" style="stop-color:#00FFFF"/>
    </radialGradient>
<radialGradient id="gradient_f_" cx=".5" cy="0.5" r="1" gradientUnits="objectBoundingBox">
      <stop offset="0" style="stop-color:#FFFFFF"/>
      <stop offset="0.5" style="stop-color:#FF89FF"/>
      <stop offset="1" style="stop-color:#FF66FF"/>
    </radialGradient>
<g id="N_Qte_Base">
      <polygon fill="url(#gradient_q_)" stroke="#000000" stroke-linecap="round" stroke-linejoin="round" stroke-miterlimit="10" points=" 36.121,0.5 47.22,32.494 0.5,32.545 11.537,0.5 "/>
    </g>
<g id="PN_Qte_Base"><!--Trait gras-->
      <polygon fill="none" stroke-width="3" stroke="#000000" stroke-linecap="round" stroke-linejoin="round" stroke-miterlimit="10" points=" 38.121,2.5 49.22,34.494 2.5,34.545 13.537,2.5 "/>
    </g>
<g id="N_Effort">
      <polygon fill="url(#gradient_e_)" stroke="#000000" stroke-linecap="round" stroke-linejoin="round" stroke-miterlimit="10" points=" 7.998,0.568 32.471,0.5 40.098,23.754 20.339,38.194 0.5,23.864 "/>
    </g>
<g id="PN_Effort"><!--Trait gras-->
      <polygon fill="none" stroke-width="3" stroke="#000000" stroke-linecap="round" stroke-linejoin="round" stroke-miterlimit="10" points=" 9.998,2.568 34.471,2.5 42.098,25.754 22.339,40.194 2.5,25.864 "/>
    </g>
<g id="N_Impulsion">
      <polygon fill="url(#gradient_p_)" stroke="#000000" stroke-linecap="round" stroke-linejoin="round" stroke-miterlimit="10" points=" 36.121,32.545 47.22,0.551 0.5,0.5 11.537,32.545 "/>
    </g>
<g id="PN_Impulsion"><!--Trait gras-->
      <polygon fill="none" stroke-width="3" stroke="#000000" stroke-linecap="round" stroke-linejoin="round" stroke-miterlimit="10" points=" 38.121,34.545 49.22,2.551 2.5,2.5 13.537,34.545 "/>
    </g>
<g id="N_Flot">
      <polygon fill="url(#gradient_f_)" stroke="#000000" stroke-linecap="round" stroke-linejoin="round" stroke-miterlimit="10" points=" 32.601,38.126 8.127,38.193 0.5,14.939 20.259,0.5 40.099,14.83 "/>
    </g>
<g id="PN_Flot"><!--Trait gras-->
      <polygon fill="none" stroke-width="3" stroke="#000000" stroke-linecap="round" stroke-linejoin="round" stroke-miterlimit="10" points=" 34.601,40.126 10.127,40.193 2.5,16.939 22.259,2.5 42.099,16.83 "/>
    </g>
<g id="O_Capacitance_Arrow">
      <line fill="none" stroke="#1B8434" stroke-width="5" x1="0" y1="6.958" x2="79.25" y2="6.958"/>
      <polygon fill="#1B8434" points="77.207,13.96 89.298,6.98 77.207,0 "/>
    </g>
<g id="O_Reluctance_Arrow">
      <line fill="none" stroke="#99330D" stroke-width="5" x1="0" y1="7.044" x2="88" y2="7.044"/>
      <polygon fill="#99330D" points="77.207,13.96 89.298,6.98 77.207,0"/>
    </g>
<g id="O_Conductance_Arrow">
      <line fill="none" stroke="#0000FF" stroke-width="5" x1="1.5" y1="97.55" x2="92.5" y2="7.5"/>
      <polygon fill="#0000FF" points="96.001,14.437 99.912,0 85.454,3.831 "/>
    </g>
<g id="O_Evolution_up" viewBox="-6.8 -86 13.6 43">
      <path fill="#F16516" stroke="#F16516" stroke-width="0.12" stroke-linejoin="bevel" stroke-miterlimit="10" d="M2.248,-33.973  L2.33, 42.934 l-1.499, 0.008 L0.749,-33.973 H2.248 L2.248,-33.973 z M-0.75,-33.965 l0.082, 76.906 h-1.499 l-0.082,-76.906&#x9;H-0.75L-0.75,-33.965z M0,-33.973l -6.743, 4.516 l6.728,-13.517 l6.759, 13.494 L0,-33.973 L0,-33.973z"/>
   </g>
<g id="O_Derivation" font-size="18" font-family="Arial" fill="#F16516">
      <text x="0" y="0">d</text>
      <text x="0" y="22">d<tspan dx="-5" font-style="italic">t</tspan> </text>
      <line fill="none" stroke="#F16516" stroke-width="1.5" x1="0" y1="4" x2="18" y2="4"/>
</g>
<g id="O_Integration" font-size="18" font-family="Arial" fill="#F16516">
     <text x="0" y="0"> d <tspan font-size="10"  dx="-3" dy="-8">-1</tspan></text>
     <text x="0" y="22">d <tspan dx="-5" font-style="italic">t</tspan><tspan font-size="10" dx="+4" dy="-8">-1</tspan></text>
     <line fill="none" stroke="#F16516" stroke-width="1.5" x1="0" y1="4" x2="28" y2="4"/>
    </g>
<g id="Summation_flow" viewBox="-2 0 37 25">
      <polyline fill="none" stroke="#808080" stroke-width="4.5" stroke-linejoin="round" stroke-miterlimit="10" points="39 25 10 25 2,0 "/>
    </g>
<g id="Summation_plus" font-size="18" font-family="Arial" fill="#000000">
      <text x="0" y="10">+</text>
    </g>
</defs>
<title>Graphe Formel d'un assemblage en variété translation</title>
<desc>Variete = Translation, Objet = Assemblage</desc>
  <g>
    <rect x="0" y="0" width="250" height="250" fill="none" stroke="black" stroke-width="1"/>
  </g>
  <g transform="translate(62.5, 62.5)">  <g id="Rectangle">
    <rect x="0" y="0" width="125" height="125" fill="none" stroke="black" stroke-width="1"/>
  </g>  <g id="Sommation_Flot" transform="translate(101, -4)">
      <use xlink:href="#Summation_flow" x="0" y="0" width="35.21" height="28.688"/>
      <use xlink:href="#Summation_plus" x="42" y="20"/>
    </g>  <g id="Capacitance" transform="translate(19, 118)">
    <use xlink:href="#O_Capacitance_Arrow" x="0" y="0" width="90" height="14" />
    <text x="36" y="34" fill="#1B8434" font-size="18" font-family="Arial">k<tspan dx="-10" dy="-8" font-family="Arial">^</tspan><tspan dx="3" dy="0" font-size="10" font-family="Arial">-1</tspan></text>
    <text x="48" y="37" fill="#1B8434" font-size="10" font-family="Arial" font-style="italic">ee</text>
  </g>  <g id="Reluctance" transform="translate(19, -7)">
    <use xlink:href="#O_Reluctance_Arrow" x="0" y="0"/>
    <text x="36" y="-3" fill="#99330D" font-size="18"  font-family="Arial">M<tspan dx="-11" dy="-8" font-family="Arial">^</tspan><tspan dx="3" dy="0" font-size="10" font-family="Arial">-1</tspan></text>
    <text x="50" y="-1" fill="#99330D" font-size="10" font-family="Times New Roman" font-style="italic">&#x2113;&#x2113;</text>
  </g>  <g id="Conductance" transform="translate(13, 14)">
    <use xlink:href="#O_Conductance_Arrow" x="0" y="0" width="99.325" height="96.621" />
    <text x="52" y="71" fill="#0000FF" font-size="18" font-family="Times New Roman"> k<tspan dx="-10" dy="-8" font-family="Arial">^</tspan><tspan dx="3" dy="0" font-size="10" font-family="Arial">-1</tspan></text>
    <text  x="68" y="72" fill="#0000FF" font-size="10" font-family="Times New Roman" font-style="italic">ff</text> 
  </g>  <g id="UR_Evol" transform="translate(126, 62)">
    <use xlink:href="#O_Evolution_up" x="0" y="0" width="14" height="86"/>
      <use xlink:href="#O_Derivation" x="9" y="-4"/>
    </g>  <g id="UL_Evol" transform="translate(1, 62)">
    <use xlink:href="#O_Evolution_up" x="0" y="0" width="14" height="86"/>
      <use xlink:href="#O_Integration" x="-41" y="2"/>
    </g>  <g id="Qte_Base" transform="translate(101, 106)"><!--Trait gras-->
    <use xlink:href="#N_Qte_Base" x="0" y="0" width="50" height="40"/>
    <use xlink:href="#PN_Qte_Base" x="-2" y="-2" width="60" height="50"/>
    <text x="22" y="25" text-anchor="middle" fill="black" font-size="28" font-family="Times New Roman" font-style="italic" font-weight="bold">&#x2113;<tspan dx="-1" dy="+3" fill="black" ></tspan></text>
 </g>  <g id="Effort" transform="translate(-20, 105)"><!--Trait gras-->
    <use xlink:href="#N_Effort" x="0" y="0" width="40" height="40"/>
    <use xlink:href="#PN_Effort" x="-2" y="-2" width="60" height="50"/>
    <text x="20" y="23" text-anchor="middle" fill="black" font-size="26" font-family="Arial" font-style="italic" font-weight="bold">   F<tspan dx="-1" dy="+3" fill="black" ></tspan></text>
  </g>  <g id="Impulsion" transform="translate(-23, -13)"><!--Trait gras-->
    <use xlink:href="#N_Impulsion" x="0" y="0" width="50" height="40"/>
    <use xlink:href="#PN_Impulsion" x="-2" y="-2" width="60" height="50"/>
    <text x="25" y="21" text-anchor="middle" fill="black" font-size="26" font-family="Times New Roman" font-style="italic" font-weight="bold">P<tspan dx="-1" dy="+3" fill="black" ></tspan></text>
 </g>  <g id="Flot" transform="translate(105, -19)"><!--Trait gras-->
    <use xlink:href="#N_Flot" x="0" y="0" width="40" height="40"/>
    <use xlink:href="#PN_Flot" x="-2" y="-2" width="50" height="50"/>
     <text x="20" y="28" text-anchor="middle" fill="black" font-size="26" font-family="Arial" font-style="italic" font-weight="bold">   v<tspan dx="-1" dy="+3" fill="black" ></tspan></text>
 </g>
</g>
</svg>