<?xml version="1.0" encoding="utf-8"?>
<svg xmlns="http://www.w3.org/2000/svg" xmlns:xlink="http://www.w3.org/1999/xlink" version="1.2" baseProfile="tiny">
  width="250" height="250" viewBox="0 0 250 250" xml:space="preserve"
  <defs>
<radialGradient id="gradient_e_" cx=".5" cy="0.5" r="1" gradientUnits="objectBoundingBox">
      <stop offset="0" style="stop-color:#FFFFFF"/>
      <stop offset="0.5" style="stop-color:#FF3F3F"/>
      <stop offset="1" style="stop-color:#FF0000"/>
    </radialGradient>
<radialGradient id="gradient_p_" cx=".5" cy="0.5" r="1" gradientUnits="objectBoundingBox">
      <stop offset="0" style="stop-color:#FFFFFF"/>
      <stop offset="0.5" style="stop-color:#3FFFFF"/>
      <stop offset="1" style="stop-color:#00FFFF"/>
    </radialGradient>
<radialGradient id="gradient_f_" cx=".5" cy="0.5" r="1" gradientUnits="objectBoundingBox">
      <stop offset="0" style="stop-color:#FFFFFF"/>
      <stop offset="0.5" style="stop-color:#FF89FF"/>
      <stop offset="1" style="stop-color:#FF66FF"/>
    </radialGradient>
<g id="N_Effort">
      <polygon fill="url(#gradient_e_)" stroke="#000000" stroke-linecap="round" stroke-linejoin="round" stroke-miterlimit="10" points=" 7.998,0.568 32.471,0.5 40.098,23.754 20.339,38.194 0.5,23.864 "/>
    </g>
<g id="N_Impulsion">
      <polygon fill="url(#gradient_p_)" stroke="#000000" stroke-linecap="round" stroke-linejoin="round" stroke-miterlimit="10" points=" 36.121,32.545 47.22,0.551 0.5,0.5 11.537,32.545 "/>
    </g>
<g id="N_Flot">
      <polygon fill="url(#gradient_f_)" stroke="#000000" stroke-linecap="round" stroke-linejoin="round" stroke-miterlimit="10" points=" 32.601,38.126 8.127,38.193 0.5,14.939 20.259,0.5 40.099,14.83 "/>
    </g>
<g id="O_Inductance_Arrow">
      <line fill="none" stroke="#99330D" stroke-width="5" x1="10" y1="7.044" x2="88" y2="7.044"/>
      <polygon fill="#99330D" points="12.163,0 0,7.022 12.163,14.044 "/>
    </g>
<g id="O_Evolution_down" viewBox="-6.8 -43 13.6 86">
      <path fill="#F16516" stroke="#F16516" stroke-width="0.12" stroke-linejoin="bevel" stroke-miterlimit="10" d="&#xD;&#xA;&#x9;&#x9;&#x9;&#x9;&#x9;M2.248,33.973L2.33-42.934l-1.499-0.008L0.749,33.973H2.248L2.248,33.973z M-0.75,33.965l0.082-76.906h-1.499l-0.082,76.906&#xD;&#xA;&#x9;&#x9;&#x9;&#x9;&#x9;H-0.75L-0.75,33.965z M0,33.973l-6.743-4.516l6.728,13.517l6.759-13.494L0,33.973L0,33.973z"/>
    </g>
<g id="O_Derivation" font-size="18" font-family="Arial" fill="#F16516">
      <text x="0" y="0">d</text>
      <text x="0" y="22">d<tspan dx="-5" font-style="italic">t</tspan> </text>
      <line fill="none" stroke="#F16516" stroke-width="1.5" x1="0" y1="4" x2="18" y2="4"/>
</g>
</defs>
<title>Graphe Formel d'un dipôle en variété hydrodynamique</title>
<desc>Variete = Hydrodynamique, Objet = Dipole</desc>
  <g>
    <rect x="0" y="0" width="250" height="250" fill="none" stroke="black" stroke-width="1"/>
  </g>
  <g transform="translate(62.5, 62.5)">  <g id="Rectangle">
    <rect x="0" y="0" width="125" height="125" fill="none" stroke="black" stroke-width="1"/>
  </g>  <g id="Inductance" transform="translate(19, -7)">
    <use xlink:href="#O_Inductance_Arrow" x="0" y="0"/>
    <text x="36" y="-3" fill="#99330D" font-size="18"  font-family="Arial">L<tspan dx="-11" dy="-8" font-family="Arial">^</tspan><tspan dx="3" dy="0" font-size="10" font-family="Arial"></tspan></text>
    <text x="50" y="-1" fill="#99330D" font-size="10" font-family="Arial" font-style="italic">VV</text>
  </g>  <g id="DL_Evol" transform="translate(-2, 62)">
    <use xlink:href="#O_Evolution_down" x="0" y="0" width="14" height="86"/>
    <use xlink:href="#O_Derivation" x="-33" y="-2"/>
  </g>  <g id="Effort" transform="translate(-20, 105)">
    <use xlink:href="#N_Effort" x="0" y="0" width="40" height="40"/>
    <text x="20" y="23" text-anchor="middle" fill="black" font-size="26" font-family="Arial" font-style="italic" font-weight="">-P<tspan dx="-1" dy="+3" fill="black" ></tspan></text>
  </g>  <g id="Impulsion" transform="translate(-23, -13)">
    <use xlink:href="#N_Impulsion" x="0" y="0" width="50" height="40"/>
    <text x="25" y="21" text-anchor="middle" fill="black" font-size="26" font-family="Times New Roman" font-style="italic" font-weight="">F<tspan dx="-1" dy="+3" fill="black" ></tspan></text>
 </g>  <g id="Flot" transform="translate(105, -19)">
    <use xlink:href="#N_Flot" x="0" y="0" width="40" height="40"/>
    <text x="20" y="28" text-anchor="middle" fill="black" font-size="26" font-family="Verdana" font-style="italic" font-weight="">   Q<tspan dx="-1" dy="+3" fill="black" ></tspan></text>
 </g>
</g>
</svg>